<svg xmlns="http://www.w3.org/2000/svg" width="16" height="16">
    <path d="M7 0C4.803 0 3 1.803 3 4v8a4 4 0 0 0 4 4h3.5c.892 0 1.72-.478 2.166-1.25a2.504 2.504 0 0 0 0-2.5 2.505 2.505 0 0 0-2.094-1.248A1 1 0 0 0 10.5 11H7a1 1 0 0 0-1 1 1 1 0 0 0 1 1h3.5v1H7a1.998 1.998 0 0 1-2-2c0-1.116.884-2 2-2h2V0Zm3 2v8h.5a3.49 3.49 0 0 1 2.5 1.06V4.5A2.5 2.5 0 0 0 10.5 2Z" style="color:#000;display:inline;fill:#000;enable-background:new"/>
</svg>
